_BCAC
…
goseq(pwf, gene2cat = GO) %>% 
  as_tibble() %>% 
  dplyr::filter(numDEInCat > 0) %>% 
  mutate(FDR = p.adjust(over_represented_pvalue, method = "fdr")) %>% 
  dplyr::select(-under_represented_pvalue) %>% 
  dplyr::filter(FDR < 0.05) 

# A tibble: 28 x 5
   category                     over_represented_p… numDEInCat numInCat      FDR
   <chr>                                      <dbl>      <int>    <int>    <dbl>
 1 GO_GLIAL_CELL_DEVELOPMENT          0.00000000361         10       86  6.93e-6
 2 GO_AXON_ENSHEATHMENT_IN_CEN…       0.0000000105           6       19  1.00e-5
 3 GO_GLIAL_CELL_DIFFERENTIATI…       0.0000000193          12      163  1.24e-5
 4 GO_OLIGODENDROCYTE_DIFFEREN…       0.0000000346           9       80  1.32e-5
 5 GO_OLIGODENDROCYTE_DEVELOPM…       0.0000000382           7       38  1.32e-5
 6 GO_GLIOGENESIS                     0.0000000412          13      212  1.32e-5
 7 GO_PERIPHERAL_NERVOUS_SYSTE…       0.00000862             6       56  2.28e-3
 8 GO_LONG_CHAIN_FATTY_ACYL_CO…       0.0000105              4       16  2.28e-3
 9 GO_REGULATION_OF_MYELINATION       0.0000107              5       34  2.28e-3
10 GO_ALCOHOL_BINDING                 0.0000178              6       63  3.42e-3
# … with 18 more rows
…
