analysis_final
…
goseq(pwf, gene2cat = GO) %>% 
  as_tibble() %>% 
  dplyr::filter(numDEInCat > 0) %>% 
  mutate(FDR = p.adjust(over_represented_pvalue, method = "fdr")) %>% 
  dplyr::select(-under_represented_pvalue) %>% 
  # write_csv("output/results/goseq_cqn/famB2_Bcoef.csv")
  dplyr::filter(FDR < 0.05) 

# A tibble: 28 × 5
   category                                     over_r…¹ numDE…² numIn…³     FDR
   <chr>                                           <dbl>   <int>   <int>   <dbl>
 1 GO_VACUOLE                                   9.68e-12      34     637 2.41e-8
 2 GO_VACUOLAR_LUMEN                            7.31e- 9      14     135 9.09e-6
 3 GO_LYSOSOMAL_LUMEN                           1.46e- 8      11      80 1.21e-5
 4 GO_AXON_ENSHEATHMENT_IN_CENTRAL_NERVOUS_SYS… 5.51e- 7       6      23 3.43e-4
 5 GO_PIGMENT_GRANULE_ORGANIZATION              1.19e- 6       6      26 5.91e-4
 6 GO_SECRETORY_GRANULE                         2.60e- 6      24     583 1.08e-3
 7 GO_SECRETORY_VESICLE                         3.25e- 6      27     722 1.16e-3
 8 GO_GLIAL_CELL_DEVELOPMENT                    5.65e- 6       9      95 1.76e-3
 9 GO_AZUROPHIL_GRANULE                         8.24e- 6      10     117 2.28e-3
10 GO_OLIGODENDROCYTE_DEVELOPMENT               1.37e- 5       6      38 3.41e-3
# … with 18 more rows, and abbreviated variable names ¹​over_represented_pvalue,
#   ²​numDEInCat, ³​numInCat
…
